Project 1
…
I used the left_join function because I did not have any preference on the order of my variables. Also, Dataset 1 had the majority of my variables and I wanted Dataset 2 to align according to it. No rows were removed nor were any NA values added.

Tidying Data

Since my data was already tidy, I decided to rearrange it and then tidy it back.

dataset.long <- Dataset %>% pivot_longer(c(2:4), names_to = "Variable", 
    values_to = "Values")
dataset.long

## # A tibble: 150 x 6
##    Country   Status     Population    FDI Variable       Values
##    <chr>     <chr>           <dbl>  <dbl> <chr>           <dbl>
##  1 Argentina Developing       45.2  6663. GDP         449663.  
##  2 Argentina Developing       45.2  6663. Education        0.84
##  3 Argentina Developing       45.2  6663. Employment      55   
##  4 Australia Developed        25.5 40075. GDP        1392681.  
##  5 Australia Developed        25.5 40075. Education        0.92
##  6 Australia Developed        25.5 40075. Employment      62   
##  7 Brazil    Developing      213.  73504. GDP        1839758.  
##  8 Brazil    Developing      213.  73504. Education        0.69
##  9 Brazil    Developing      213.  73504. Employment      56   
## 10 Canada    Developed        37.7 47845. GDP        1736426.  
## # … with 140 more rows

dataset.long %>% pivot_wider(names_from = "Variable", values_from = "Values")

## # A tibble: 50 x 7
##    Country   Status     Population     FDI       GDP Education Employment
##    <chr>     <chr>           <dbl>   <dbl>     <dbl>     <dbl>      <dbl>
##  1 Argentina Developing       45.2   6663.   449663.     0.84          55
##  2 Australia Developed        25.5  40075.  1392681.     0.92          62
##  3 Brazil    Developing      213.   73504.  1839758.     0.69          56
##  4 Canada    Developed        37.7  47845.  1736426.     0.89          61
##  5 Chad      Developing       16.4    567.    11315.     0.290         69
##  6 Chile     Developing       19.1  11928.   282318.     0.81          58
##  7 China     Developing     1439.  155815. 14342903.     0.65          65
##  8 Colombia  Developing       50.9  14314.   323803.     0.68          62
##  9 Qatar     Developing        2.9  -2813.   183466.     0.66          87
## 10 Denmark   Developed         5.8  -7837.   348078.     0.92          59
## # … with 40 more rows
…
## GDP             1.00000000  0.17820588 -0.02249183  0.5333389  0.92416133
## Education       0.17820588  1.00000000 -0.05202709 -0.1895795  0.21091449
## Employment     -0.02249183 -0.05202709  1.00000000 -0.1197990 -0.01535499
## Population      0.53333893 -0.18957948 -0.11979905  1.0000000  0.41796647
## FDI             0.92416133  0.21091449 -0.01535499  0.4179665  1.00000000
## GDP_per_capita  0.21601900  0.71662608  0.25137299 -0.2077991  0.25235633
##                GDP_per_capita
## GDP                 0.2160190
## Education           0.7166261
## Employment          0.2513730
## Population         -0.2077991
## FDI                 0.2523563
## GDP_per_capita      1.0000000

## # A tibble: 36 x 3
##    var1      var2           correlation
##    <chr>     <chr>                <dbl>
##  1 GDP       GDP                 1     
##  2 GDP       Education           0.178 
##  3 GDP       Employment         -0.0225
##  4 GDP       Population          0.533 
##  5 GDP       FDI                 0.924 
##  6 GDP       GDP_per_capita      0.216 
##  7 Education GDP                 0.178 
##  8 Education Education           1     
##  9 Education Employment         -0.0520
## 10 Education Population         -0.190 
## # … with 26 more rows
…
